<svg xmlns="http://www.w3.org/2000/svg" width="51.063" height="49.92" viewBox="0 0 51.063 49.92">
  <g id="Group_132" data-name="Group 132" transform="translate(-6335.625 1052.375)">
    <g id="Group_120" data-name="Group 120" transform="translate(6336 -1052)">
      <g id="Group_62" data-name="Group 62" transform="translate(0 0)">
        <g id="Group_54" data-name="Group 54">
          <path id="Path_44" data-name="Path 44" d="M1175.8,3150.181a12.007,12.007,0,1,0,12.007,12.007A12.024,12.024,0,0,0,1175.8,3150.181Zm0,2.287a9.72,9.72,0,1,1-9.72,9.72A9.7,9.7,0,0,1,1175.8,3152.468Zm-.125,2.269a1.143,1.143,0,0,0-1.018,1.161v.626a3.454,3.454,0,0,0-2.859,3.377,3.734,3.734,0,0,0,4,3.43c1.275,0,1.716.558,1.716,1.143,0,.738-.288,1.144-1.144,1.144h-3.431a1.143,1.143,0,1,0-.032,2.287h1.748v.572a1.143,1.143,0,0,0,2.287.033v-.659a3.455,3.455,0,0,0,2.859-3.376,3.735,3.735,0,0,0-4-3.431c-1.275,0-1.715-.558-1.715-1.143,0-.738.288-1.144,1.144-1.144h3.43a1.143,1.143,0,0,0,.033-2.287h-1.748v-.572a1.144,1.144,0,0,0-1.119-1.168A1.4,1.4,0,0,0,1175.677,3154.738Zm-29.141,20.6a1.143,1.143,0,0,0-1.036,1.143v20.584a1.145,1.145,0,0,0,1.144,1.144h8a1.144,1.144,0,0,0,1.144-1.144v-3.5a48.455,48.455,0,0,0,5.021,3.484,19.1,19.1,0,0,0,9.845,2.3c4.72,0,10.2-2.552,14.633-5.021a82.171,82.171,0,0,0,7.737-4.9l.036-.036a7.293,7.293,0,0,0,2.037-1.751,4.356,4.356,0,0,0,.714-2.591,3.039,3.039,0,0,0-.893-2.144,4.123,4.123,0,0,0-1.7-.965,8.513,8.513,0,0,0-2.555-.321,9.829,9.829,0,0,0-4.127,1.25,14.664,14.664,0,0,0-1.323.715,4,4,0,0,0-3.7-2.538h-10.453c-3.24-2.872-8.727-3.365-15.276-3.413v-1.161a1.143,1.143,0,0,0-1.144-1.143h-8A.988.988,0,0,0,1146.536,3175.339Zm1.25,2.287h5.717v1.054c0,.03,0,.06,0,.09v12.578c0,.041,0,.083,0,.125v4.448h-5.717Zm8,2.323c6.626.081,11.836.83,14.061,3.055a1.142,1.142,0,0,0,.8.34h10.863a1.715,1.715,0,0,1,0,3.431h-16.581a1.143,1.143,0,1,0-.033,2.287h16.614a3.969,3.969,0,0,0,3.769-2.912,1.093,1.093,0,0,0,.268-.125s.87-.547,1.983-1.089a9.914,9.914,0,0,1,3.127-1.019,7.056,7.056,0,0,1,1.876.232,2.094,2.094,0,0,1,.786.393.576.576,0,0,1,.2.518,1.814,1.814,0,0,1-.286,1.25,6.287,6.287,0,0,1-1.5,1.215l-.036.036a76.925,76.925,0,0,1-7.522,4.788c-4.29,2.39-9.669,4.717-13.525,4.717a16.542,16.542,0,0,1-8.737-2c-1.987-1.119-3.763-2.692-6.128-4.324Z" transform="translate(-1145.5 -3150.181)" fill="#3d73d3" stroke="#3d73d3" stroke-width="0.75"/>
        </g>
      </g>
    </g>
  </g>
</svg>
