<svg id="Group_124" data-name="Group 124" xmlns="http://www.w3.org/2000/svg" xmlns:xlink="http://www.w3.org/1999/xlink" width="21.729" height="12.603" viewBox="0 0 21.729 12.603">
  <defs>
    <clipPath id="clip-path">
      <rect id="Rectangle_73" data-name="Rectangle 73" width="21.729" height="12.603" fill="none"/>
    </clipPath>
  </defs>
  <g id="Group_35" data-name="Group 35" transform="translate(0 0)">
    <g id="Group_34" data-name="Group 34" clip-path="url(#clip-path)">
      <path id="Path_72" data-name="Path 72" d="M4065.276,682.516l-9.3-9.3a1.515,1.515,0,0,1,2.141-2.144l8.229,8.229,8.228-8.228a1.515,1.515,0,0,1,2.142,2.142l-9.3,9.3a1.516,1.516,0,0,1-2.141,0Zm0,0" transform="translate(-4055.43 -670.631)" fill="#606060"/>
    </g>
  </g>
</svg>
