<svg xmlns="http://www.w3.org/2000/svg" xmlns:xlink="http://www.w3.org/1999/xlink" width="96" height="96" viewBox="0 0 96 96">
  <defs>
    <clipPath id="clip-Artboard_9">
      <rect width="96" height="96"/>
    </clipPath>
  </defs>
  <g id="Artboard_9" data-name="Artboard – 9" clip-path="url(#clip-Artboard_9)">
    <g id="Group_133" data-name="Group 133" transform="translate(-6313 662)">
      <path id="Path_258" data-name="Path 258" d="M1401.582,1458.518h-4.963v-9.169a1.346,1.346,0,0,0-1.346-1.346H1377.69v-7.824h4.963a1.346,1.346,0,0,0,1.346-1.347v-8.412a1.346,1.346,0,0,0-1.346-1.346h-12.618a1.346,1.346,0,0,0-1.345,1.346v8.412a1.346,1.346,0,0,0,1.345,1.347H1375V1448h-17.582a1.346,1.346,0,0,0-1.346,1.346v9.169h-4.963a1.346,1.346,0,0,0-1.345,1.346v8.412a1.346,1.346,0,0,0,1.345,1.347h12.619a1.346,1.346,0,0,0,1.345-1.347v-8.412a1.346,1.346,0,0,0-1.345-1.346h-4.963v-7.823H1375v7.823h-4.963a1.346,1.346,0,0,0-1.345,1.346v8.412a1.346,1.346,0,0,0,1.345,1.347h12.618a1.346,1.346,0,0,0,1.346-1.347v-8.412a1.346,1.346,0,0,0-1.346-1.346h-4.963v-7.823h16.235v7.823h-4.963a1.346,1.346,0,0,0-1.346,1.346v8.412a1.346,1.346,0,0,0,1.346,1.347h12.619a1.346,1.346,0,0,0,1.346-1.347v-8.412A1.346,1.346,0,0,0,1401.582,1458.518Zm-30.2-26.751h9.927v5.72h-9.927Zm-9,35.163h-9.925v-5.721h9.925Zm18.928,0h-9.927v-5.721h9.927Zm18.928,0h-9.927v-5.721h9.927Z" transform="translate(4984.738 -2063.575)" fill="#3d73d3" stroke="#3d73d3" stroke-width="0.2"/>
    </g>
  </g>
</svg>
