<svg xmlns="http://www.w3.org/2000/svg" xmlns:xlink="http://www.w3.org/1999/xlink" width="96" height="96" viewBox="0 0 96 96">
  <defs>
    <clipPath id="clip-Artboard_4">
      <rect width="96" height="96"/>
    </clipPath>
  </defs>
  <g id="Artboard_4" data-name="Artboard – 4" clip-path="url(#clip-Artboard_4)">
    <g id="Group_246" data-name="Group 246" transform="translate(0)">
      <g id="Group_130" data-name="Group 130" transform="translate(-5134 1075)">
        <g id="Group_118" data-name="Group 118" transform="translate(5161 -1048)">
          <path id="Path_200" data-name="Path 200" d="M0,0H41.378V41.378H0Z" transform="translate(0)" fill="none" stroke="#3d73d3" stroke-width="3"/>
          <rect id="Rectangle_91" data-name="Rectangle 91" width="18.39" height="18.39" transform="translate(0.46 22.528)" fill="#3d73d3" opacity="0.7"/>
        </g>
      </g>
    </g>
  </g>
</svg>
